ID_SAGBIAS_-0.200000_RADBIAS_0.000000_MAGBIAS_0.000000_SIGMA_0.000000
ID_SAGBIAS_-0.190000_RADBIAS_0.000000_MAGBIAS_0.000000_SIGMA_0.000000
ID_SAGBIAS_-0.180000_RADBIAS_0.000000_MAGBIAS_0.000000_SIGMA_0.000000
ID_SAGBIAS_-0.170000_RADBIAS_0.000000_MAGBIAS_0.000000_SIGMA_0.000000
ID_SAGBIAS_-0.160000_RADBIAS_0.000000_MAGBIAS_0.000000_SIGMA_0.000000
ID_SAGBIAS_-0.150000_RADBIAS_0.000000_MAGBIAS_0.000000_SIGMA_0.000000
ID_SAGBIAS_-0.140000_RADBIAS_0.000000_MAGBIAS_0.000000_SIGMA_0.000000
ID_SAGBIAS_-0.130000_RADBIAS_0.000000_MAGBIAS_0.000000_SIGMA_0.000000
ID_SAGBIAS_-0.120000_RADBIAS_0.000000_MAGBIAS_0.000000_SIGMA_0.000000
ID_SAGBIAS_-0.110000_RADBIAS_0.000000_MAGBIAS_0.000000_SIGMA_0.000000
ID_SAGBIAS_-0.100000_RADBIAS_0.000000_MAGBIAS_0.000000_SIGMA_0.000000
ID_SAGBIAS_-0.090000_RADBIAS_0.000000_MAGBIAS_0.000000_SIGMA_0.000000
ID_SAGBIAS_-0.080000_RADBIAS_0.000000_MAGBIAS_0.000000_SIGMA_0.000000
ID_SAGBIAS_-0.070000_RADBIAS_0.000000_MAGBIAS_0.000000_SIGMA_0.000000
ID_SAGBIAS_-0.060000_RADBIAS_0.000000_MAGBIAS_0.000000_SIGMA_0.000000
ID_SAGBIAS_-0.050000_RADBIAS_0.000000_MAGBIAS_0.000000_SIGMA_0.000000
ID_SAGBIAS_-0.040000_RADBIAS_0.000000_MAGBIAS_0.000000_SIGMA_0.000000
ID_SAGBIAS_-0.030000_RADBIAS_0.000000_MAGBIAS_0.000000_SIGMA_0.000000
ID_SAGBIAS_-0.020000_RADBIAS_0.000000_MAGBIAS_0.000000_SIGMA_0.000000
ID_SAGBIAS_-0.010000_RADBIAS_0.000000_MAGBIAS_0.000000_SIGMA_0.000000
ID_SAGBIAS_0.000000_RADBIAS_0.000000_MAGBIAS_0.000000_SIGMA_0.000000
ID_SAGBIAS_0.010000_RADBIAS_0.000000_MAGBIAS_0.000000_SIGMA_0.000000
ID_SAGBIAS_0.020000_RADBIAS_0.000000_MAGBIAS_0.000000_SIGMA_0.000000
ID_SAGBIAS_0.030000_RADBIAS_0.000000_MAGBIAS_0.000000_SIGMA_0.000000
ID_SAGBIAS_0.040000_RADBIAS_0.000000_MAGBIAS_0.000000_SIGMA_0.000000
ID_SAGBIAS_0.050000_RADBIAS_0.000000_MAGBIAS_0.000000_SIGMA_0.000000
ID_SAGBIAS_0.060000_RADBIAS_0.000000_MAGBIAS_0.000000_SIGMA_0.000000
ID_SAGBIAS_0.070000_RADBIAS_0.000000_MAGBIAS_0.000000_SIGMA_0.000000
ID_SAGBIAS_0.080000_RADBIAS_0.000000_MAGBIAS_0.000000_SIGMA_0.000000
ID_SAGBIAS_0.090000_RADBIAS_0.000000_MAGBIAS_0.000000_SIGMA_0.000000
ID_SAGBIAS_0.100000_RADBIAS_0.000000_MAGBIAS_0.000000_SIGMA_0.000000
ID_SAGBIAS_0.110000_RADBIAS_0.000000_MAGBIAS_0.000000_SIGMA_0.000000
ID_SAGBIAS_0.120000_RADBIAS_0.000000_MAGBIAS_0.000000_SIGMA_0.000000
ID_SAGBIAS_0.130000_RADBIAS_0.000000_MAGBIAS_0.000000_SIGMA_0.000000
ID_SAGBIAS_0.140000_RADBIAS_0.000000_MAGBIAS_0.000000_SIGMA_0.000000
ID_SAGBIAS_0.150000_RADBIAS_0.000000_MAGBIAS_0.000000_SIGMA_0.000000
ID_SAGBIAS_0.160000_RADBIAS_0.000000_MAGBIAS_0.000000_SIGMA_0.000000
ID_SAGBIAS_0.170000_RADBIAS_0.000000_MAGBIAS_0.000000_SIGMA_0.000000
ID_SAGBIAS_0.180000_RADBIAS_0.000000_MAGBIAS_0.000000_SIGMA_0.000000
ID_SAGBIAS_0.190000_RADBIAS_0.000000_MAGBIAS_0.000000_SIGMA_0.000000