###############################################################################################
					 Enviroment variables
###############################################################################################
declare -x ALRB_ACM_PATH="/cvmfs/atlas.cern.ch/repo/ATLASLocalRootBase/x86_64/acm/0.1.26/acm"
declare -x ALRB_OSMAJORVER="7"
declare -x ALRB_OSTYPE="Linux"
declare -x ALRB_RELOCATEALRB="NO"
declare -x ALRB_RELOCATECVMFS="NO"
declare -x ALRB_RHVER="7"
declare -x ALRB_SCRATCH="/afs/cern.ch/user/n/nviauxma/.alrb"
declare -x ALRB_SFTNIGHT_LCG="/cvmfs/sft-nightlies.cern.ch/lcg"
declare -x ALRB_SFT_LCG="/cvmfs/sft.cern.ch/lcg"
declare -x ALRB_SFT_LCGEXT_MAP="/cvmfs/sft.cern.ch/lcg/mapfile.txt"
declare -x ALRB_SHELL="bash"
declare -x ALRB_USER_PLATFORM="centos7"
declare -x ALRB_allowSL6onSL5="NO"
declare -x ALRB_availableTools=" acm adctools agis art asetup atlantis boost clang cmake cppcheck davix dcube eiclient emi fax fftw ganga gcc gccxml git gitlab gsl hdf5 lcgenv logstash pacman panda png prmon pyami python rcsetup root rucio sft swmgr tbb views xcache xrootd"
declare -x ALRB_availableToolsPost=" advanced diagnostics helpme printmenu showversions"
declare -x ALRB_availableToolsPre=" lsetup"
declare -x ALRB_clientShell="bash"
declare -x ALRB_cvmfs_ALRB="/cvmfs/atlas.cern.ch/repo/ATLASLocalRootBase"
declare -x ALRB_cvmfs_Athena="/cvmfs/atlas.cern.ch/repo/sw/software"
declare -x ALRB_cvmfs_CDB="/cvmfs/atlas-condb.cern.ch/repo/conditions"
declare -x ALRB_cvmfs_condb_repo="/cvmfs/atlas-condb.cern.ch/repo"
declare -x ALRB_cvmfs_nightly_repo="/cvmfs/atlas-nightlies.cern.ch/repo"
declare -x ALRB_cvmfs_repo="/cvmfs/atlas.cern.ch/repo"
declare -x ALRB_cvmfs_sft_repo="/cvmfs/sft.cern.ch/lcg"
declare -x ALRB_cvmfs_sftnight_repo="/cvmfs/sft-nightlies.cern.ch/lcg"
declare -x ALRB_cvmfs_unpacked_repo="/cvmfs/unpacked.cern.ch"
declare -x ALRB_envPython="2"
declare -x ALRB_gridType="none"
declare -x ALRB_infoProc="model name	: Intel Core Processor (Broadwell, IBRS)"
declare -x ALRB_infoUname="Linux lxplus769.cern.ch 3.10.0-1160.45.1.el7.x86_64 #1 SMP Wed Oct 13 17:20:51 UTC 2021 x86_64 x86_64 x86_64 GNU/Linux"
declare -x ALRB_motdExclusions=""
declare -x ALRB_printHelpMain=""
declare -x ALRB_requestedVersions="cmake:3.18.3  rcsetup:00-04-18  acm:0.1.26 asetup:V02-00-33  "
declare -x ALRB_sedExclusions=""
declare -x ALRB_testPath=",,"
declare -x ALRB_tmpScratch="/tmp/nviauxma/nviauxma/.alrb"
declare -x ALRB_useGridSW="emi"
declare -x ASETUP_ENVFILE="/tmp/nviauxma/.envBefore_asetup.sh-o7oMaQ_17918"
declare -x ASETUP_PPID="17918"
declare -x ASETUP_PRINTLEVEL="0"
declare -x ASETUP_SYSBIN="/tmp/nviauxma/.asetup-sysbin-CA0zyX_17918"
declare -x ASG_TEST_FILE_DATA="/cvmfs/atlas-nightlies.cern.ch/repo/data/data-art/CommonInputs/DAOD_PHYSVAL/data16_13TeV.00311321.physics_Main.DAOD_PHYSVAL.r9264_AthDerivation-21.2.1.0.root"
declare -x ASG_TEST_FILE_MC="/cvmfs/atlas-nightlies.cern.ch/repo/data/data-art/CommonInputs/DAOD_PHYSVAL/mc16_13TeV.410501.PowhegPythia8EvtGen_A14_ttbar_hdamp258p75_nonallhad.DAOD_PHYSVAL.e5458_s3126_r9364_r9315_AthDerivation-21.2.1.0.root"
declare -x ASG_TEST_FILE_MC_AFII="/cvmfs/atlas-nightlies.cern.ch/repo/data/data-art/CommonInputs/DAOD_PHYSVAL/valid1.410000.PowhegPythiaEvtGen_P2012_ttbar_hdamp172p5_nonallhad.DAOD_PHYSVAL.e4993_s3189_r9524_AthDerivation-21.2.1.0.root"
declare -x ATLAS_DB_AREA="/cvmfs/atlas.cern.ch/repo/sw/database"
declare -x ATLAS_GPERFTOOLS_DIR="/cvmfs/atlas-nightlies.cern.ch/repo/sw/21.2_AthAnalysis_x86_64-centos7-gcc8-opt/sw/lcg/releases/LCG_97a/gperftools/2.7/x86_64-centos7-gcc8-opt/lib"
declare -x ATLAS_LOCAL_ACM_VERSION="0.1.26"
declare -x ATLAS_LOCAL_ASETUP_PATH="/cvmfs/atlas.cern.ch/repo/ATLASLocalRootBase/x86_64/AtlasSetup/V02-00-33"
declare -x ATLAS_LOCAL_ASETUP_VERSION="V02-00-33"
declare -x ATLAS_LOCAL_CMAKE_VERSION="3.18.3"
declare -x ATLAS_LOCAL_RCSETUP_PATH="/cvmfs/atlas.cern.ch/repo/ATLASLocalRootBase/x86_64/rcSetup/00-04-18"
declare -x ATLAS_LOCAL_RCSETUP_VERSION="00-04-18"
declare -x ATLAS_LOCAL_ROOT="/cvmfs/atlas.cern.ch/repo/ATLASLocalRootBase/x86_64"
declare -x ATLAS_LOCAL_ROOT_ARCH="x86_64"
declare -x ATLAS_LOCAL_ROOT_BASE="/cvmfs/atlas.cern.ch/repo/ATLASLocalRootBase"
declare -x ATLAS_LOCAL_ROOT_PACOPT=""
declare -x ATLAS_LOCAL_SETUP_OPTIONS=""
declare -x ATLAS_POOLCOND_PATH="/cvmfs/atlas-condb.cern.ch/repo/conditions"
declare -x ATLAS_RELEASE_BASE="/cvmfs/atlas-nightlies.cern.ch/repo/sw/21.2_AthAnalysis_x86_64-centos7-gcc8-opt/2021-12-09T0337"
declare -x AthAnalysisExternals_DIR="/cvmfs/atlas-nightlies.cern.ch/repo/sw/21.2_AthAnalysis_x86_64-centos7-gcc8-opt/2021-12-09T0337/AthAnalysisExternals/21.2.196/InstallArea/x86_64-centos7-gcc8-opt"
declare -x AthAnalysisExternals_EXTONLY_SET_UP="1"
declare -x AthAnalysisExternals_PLATFORM="x86_64-centos7-gcc8-opt"
declare -x AthAnalysisExternals_RELONLY_SET_UP="1"
declare -x AthAnalysisExternals_VERSION="21.2.196"
declare -x AthAnalysis_DIR="/cvmfs/atlas-nightlies.cern.ch/repo/sw/21.2_AthAnalysis_x86_64-centos7-gcc8-opt/2021-12-09T0337/AthAnalysis/21.2.196/InstallArea/x86_64-centos7-gcc8-opt"
declare -x AthAnalysis_PLATFORM="x86_64-centos7-gcc8-opt"
declare -x AthAnalysis_SET_UP="1"
declare -x AthAnalysis_VERSION="21.2.196"
declare -x AtlasArea="/cvmfs/atlas-nightlies.cern.ch/repo/sw/21.2_AthAnalysis_x86_64-centos7-gcc8-opt/2021-12-09T0337/AthAnalysis/21.2.196"
declare -x AtlasBaseDir="/cvmfs/atlas-nightlies.cern.ch/repo/sw/21.2_AthAnalysis_x86_64-centos7-gcc8-opt/2021-12-09T0337"
declare -x AtlasBuildBranch="21.2"
declare -x AtlasBuildStamp="2021-12-09T0337"
declare -x AtlasProject="AthAnalysis"
declare -x AtlasReleaseType="nightly"
declare -x AtlasSetup="/cvmfs/atlas.cern.ch/repo/ATLASLocalRootBase/x86_64/AtlasSetup/V02-00-33/AtlasSetup"
declare -x AtlasSetupSite="/cvmfs/atlas.cern.ch/repo/ATLASLocalRootBase/x86_64/AtlasSetup/.config/.asetup.site"
declare -x AtlasSetupSiteCMake="/cvmfs/atlas.cern.ch/repo/ATLASLocalRootBase/x86_64/AtlasSetup/.configCMake/.asetup.site"
declare -x AtlasSetupStatus="0"
declare -x AtlasVersion="21.2.196"
declare -x BINARY_TAG="x86_64-centos7-gcc8-opt"
declare -x BROWSER="/afs/cern.ch/user/n/nviauxma/.vscode-server/bin/b3318bc0524af3d74034b8bb8a64df0ccf35549a/bin/helpers/browser.sh"
declare -x CALIBPATH="/afs/cern.ch/user/n/nviauxma/ZmassCalibration3/build/x86_64-centos7-gcc8-opt/data:/afs/cern.ch/user/n/nviauxma/ZmassCalibration3/build/x86_64-centos7-gcc8-opt/share:/cvmfs/atlas-nightlies.cern.ch/repo/sw/21.2_AthAnalysis_x86_64-centos7-gcc8-opt/2021-12-09T0337/AthAnalysis/21.2.196/InstallArea/x86_64-centos7-gcc8-opt/data:/cvmfs/atlas-nightlies.cern.ch/repo/sw/21.2_AthAnalysis_x86_64-centos7-gcc8-opt/2021-12-09T0337/AthAnalysis/21.2.196/InstallArea/x86_64-centos7-gcc8-opt/share:/cvmfs/atlas-nightlies.cern.ch/repo/sw/21.2_AthAnalysis_x86_64-centos7-gcc8-opt/2021-12-09T0337/AthAnalysisExternals/21.2.196/InstallArea/x86_64-centos7-gcc8-opt/data:/cvmfs/atlas-nightlies.cern.ch/repo/sw/21.2_AthAnalysis_x86_64-centos7-gcc8-opt/2021-12-09T0337/AthAnalysisExternals/21.2.196/InstallArea/x86_64-centos7-gcc8-opt/share:/sw/DbData/GroupData:/cvmfs/atlas.cern.ch/repo/sw/database/GroupData:/eos/atlas/atlascerngroupdisk/asg-calib:http//cern.ch/atlas-groupdata:http//atlas.web.cern.ch/Atlas/GROUPS/DATABASE/GroupData"
declare -x CASTOR_HOME="/castor/cern.ch/user/n/nviauxma"
declare -x CC="/cvmfs/sft.cern.ch/lcg/releases/gcc/8.3.0-cebb0/x86_64-centos7/bin/gcc"
declare -x CLING_PREBUILT_MODULE_PATH="/cvmfs/atlas-nightlies.cern.ch/repo/sw/21.2_AthAnalysis_x86_64-centos7-gcc8-opt/sw/lcg/releases/ROOT/v6.20.06-3f7fd/x86_64-centos7-gcc8-opt/lib:"
declare -x CMAKE_NO_VERBOSE="1"
declare -x CMAKE_PREFIX_PATH="/afs/cern.ch/user/n/nviauxma/ZmassCalibration3/build/x86_64-centos7-gcc8-opt:/cvmfs/atlas-nightlies.cern.ch/repo/sw/21.2_AthAnalysis_x86_64-centos7-gcc8-opt/2021-12-09T0337/AthAnalysis/21.2.196/InstallArea/x86_64-centos7-gcc8-opt:/cvmfs/atlas-nightlies.cern.ch/repo/sw/21.2_AthAnalysis_x86_64-centos7-gcc8-opt/2021-12-09T0337/AthAnalysisExternals/21.2.196/InstallArea/x86_64-centos7-gcc8-opt"
declare -x CMTCONFIG="x86_64-centos7-gcc8-opt"
declare -x CMTUSERCONTEXT="/cvmfs/atlas.cern.ch/repo/tools/slc6/cmt"
declare -x COLORTERM="truecolor"
declare -x COLUMNS="93"
declare -x COMPILER_PATH="/cvmfs/sft.cern.ch/lcg/releases/gcc/8.3.0-cebb0/x86_64-centos7"
declare -x CONDA_SHLVL="0"
declare -x COOL_DISABLE_CORALCONNECTIONPOOLCLEANUP="YES"
declare -x COOL_ORA_ENABLE_ADAPTIVE_OPT="Y"
declare -x CORAL_AUTH_PATH="/cvmfs/atlas-nightlies.cern.ch/repo/sw/21.2_AthAnalysis_x86_64-centos7-gcc8-opt/2021-12-09T0337/AthAnalysis/21.2.196/InstallArea/x86_64-centos7-gcc8-opt/XML/AtlasAuthentication"
declare -x CORAL_DBLOOKUP_PATH="/cvmfs/atlas-nightlies.cern.ch/repo/sw/21.2_AthAnalysis_x86_64-centos7-gcc8-opt/2021-12-09T0337/AthAnalysis/21.2.196/InstallArea/x86_64-centos7-gcc8-opt/XML/AtlasAuthentication"
declare -x CVS_RSH="ssh"
declare -x CXX="/cvmfs/sft.cern.ch/lcg/releases/gcc/8.3.0-cebb0/x86_64-centos7/bin/g++"
declare -x ClusterControlModule="./TMP/2021-12-09/NViaux20/CONFIG/zCF9mwQWeFhN1caki9HxaAVL0gIBqmaCljOJWta5YqVmaUDKP0fqHAZ304mR41QlbqBzuFYVd9iYwWm978ZWs3mX6cIaOYUExad.sh"
declare -x DATAPATH="/afs/cern.ch/user/n/nviauxma/ZmassCalibration3/build/x86_64-centos7-gcc8-opt/data:/afs/cern.ch/user/n/nviauxma/ZmassCalibration3/build/x86_64-centos7-gcc8-opt/share:/cvmfs/atlas-nightlies.cern.ch/repo/sw/21.2_AthAnalysis_x86_64-centos7-gcc8-opt/2021-12-09T0337/GAUDI/21.2.196/InstallArea/x86_64-centos7-gcc8-opt/share:/cvmfs/atlas-nightlies.cern.ch/repo/sw/21.2_AthAnalysis_x86_64-centos7-gcc8-opt/2021-12-09T0337/AthAnalysis/21.2.196/InstallArea/x86_64-centos7-gcc8-opt/data:/cvmfs/atlas-nightlies.cern.ch/repo/sw/21.2_AthAnalysis_x86_64-centos7-gcc8-opt/2021-12-09T0337/AthAnalysis/21.2.196/InstallArea/x86_64-centos7-gcc8-opt/share:/cvmfs/atlas-nightlies.cern.ch/repo/sw/21.2_AthAnalysis_x86_64-centos7-gcc8-opt/2021-12-09T0337/AthAnalysisExternals/21.2.196/InstallArea/x86_64-centos7-gcc8-opt/data:/cvmfs/atlas-nightlies.cern.ch/repo/sw/21.2_AthAnalysis_x86_64-centos7-gcc8-opt/2021-12-09T0337/AthAnalysisExternals/21.2.196/InstallArea/x86_64-centos7-gcc8-opt/share:/cvmfs/atlas-nightlies.cern.ch/repo/data/data-art"
declare -x DBRELEASE_OVERRIDE="current"
declare -x DYLD_LIBRARY_PATH="/afs/cern.ch/user/n/nviauxma/ZmassCalibration3/build/x86_64-centos7-gcc8-opt/lib:/cvmfs/atlas-nightlies.cern.ch/repo/sw/21.2_AthAnalysis_x86_64-centos7-gcc8-opt/2021-12-09T0337/AthAnalysis/21.2.196/InstallArea/x86_64-centos7-gcc8-opt/lib:/cvmfs/atlas-nightlies.cern.ch/repo/sw/21.2_AthAnalysis_x86_64-centos7-gcc8-opt/2021-12-09T0337/AthAnalysisExternals/21.2.196/InstallArea/x86_64-centos7-gcc8-opt/lib"
declare -x EDITOR="/bin/nano -w"
declare -x EOS_MGM_URL="root://eosatlas.cern.ch"
declare -x Exec="PlotPseudoMass"
declare -x FC="/cvmfs/sft.cern.ch/lcg/releases/gcc/8.3.0-cebb0/x86_64-centos7/bin/gfortran"
declare -x FRONTIER_SERVER="(serverurl=http://atlasfrontier-local.cern.ch:8000/atlr)(serverurl=http://atlasfrontier-ai.cern.ch:8000/atlr)(serverurl=http://ccfrontier.in2p3.fr:23128/ccin2p3-AtlasFrontier)(proxyurl=http://ca-proxy-atlas.cern.ch:3128)(proxyurl=http://ca-proxy-meyrin.cern.ch:3128)(proxyurl=http://ca-proxy.cern.ch:3128)(proxyurl=http://atlasbpfrontier.cern.ch:3127)(proxyurl=http://atlasbpfrontier.fnal.gov:3127)"
declare -x GAUDI_ROOT="/cvmfs/atlas-nightlies.cern.ch/repo/sw/21.2_AthAnalysis_x86_64-centos7-gcc8-opt/2021-12-09T0337/GAUDI/21.2.196/InstallArea/x86_64-centos7-gcc8-opt"
declare -x GFORTRAN_UNBUFFERED_ALL="y"
declare -x GIT_ASKPASS="/afs/cern.ch/user/n/nviauxma/.vscode-server/bin/b3318bc0524af3d74034b8bb8a64df0ccf35549a/extensions/git/dist/askpass.sh"
declare -x GUESTFISH_INIT="\\e[1;34m"
declare -x GUESTFISH_OUTPUT="\\e[0m"
declare -x GUESTFISH_PS1="\\[\\e[1;32m\\]><fs>\\[\\e[0;31m\\] "
declare -x GUESTFISH_RESTORE="\\e[0m"
declare -x HISTCONTROL="ignoredups"
declare -x HISTSIZE="1000"
declare -x HOME="/afs/cern.ch/user/n/nviauxma"
declare -x HOSTNAME="lxplus769.cern.ch"
declare -x InCfg="./TMP/2021-12-09/NViaux20/CONFIG/InCfgs_lfwAS2x551kWhAHW7sTp.conf"
declare -x JOBOPTSEARCHPATH=".:/afs/cern.ch/user/n/nviauxma/ZmassCalibration3/build/x86_64-centos7-gcc8-opt/jobOptions:/cvmfs/atlas-nightlies.cern.ch/repo/sw/21.2_AthAnalysis_x86_64-centos7-gcc8-opt/2021-12-09T0337/GAUDI/21.2.196/InstallArea/x86_64-centos7-gcc8-opt/jobOptions:/afs/cern.ch/user/n/nviauxma/ZmassCalibration3/build:/cvmfs/atlas-nightlies.cern.ch/repo/sw/21.2_AthAnalysis_x86_64-centos7-gcc8-opt/2021-12-09T0337/AthAnalysis/21.2.196/InstallArea/x86_64-centos7-gcc8-opt/jobOptions:/cvmfs/atlas-nightlies.cern.ch/repo/sw/21.2_AthAnalysis_x86_64-centos7-gcc8-opt/2021-12-09T0337/AthAnalysisExternals/21.2.196/InstallArea/x86_64-centos7-gcc8-opt/jobOptions"
declare -x JobCfg="./TMP/2021-12-09/NViaux20/CONFIG/JobCfg_lfwAS2x551kWhAHW7sTp.conf"
declare -x KDEDIRS="/usr"
declare -x KRB5CCNAME="FILE:/tmp/krb5cc_86006_LqwWTp"
declare -x LANG="C"
declare -x LCG_EXTERNAL_CALLED="SI"
declare -x LCG_GFAL_INFOSYS="lcg-bdii.cern.ch:2170"
declare -x LCG_PLATFORM="x86_64-centos7-gcc8-opt"
declare -x LCG_RELEASE_BASE="/cvmfs/atlas-nightlies.cern.ch/repo/sw/21.2_AthAnalysis_x86_64-centos7-gcc8-opt/sw/lcg/releases"
declare -x LC_ALL="C"
declare -x LD_LIBRARY_PATH="/afs/cern.ch/user/n/nviauxma/ZmassCalibration3/build/x86_64-centos7-gcc8-opt/lib:/cvmfs/atlas-nightlies.cern.ch/repo/sw/21.2_AthAnalysis_x86_64-centos7-gcc8-opt/sw/lcg/releases/LCG_97a/tbb/2020_U1/x86_64-centos7-gcc8-opt/lib:/cvmfs/atlas-nightlies.cern.ch/repo/sw/21.2_AthAnalysis_x86_64-centos7-gcc8-opt/sw/lcg/releases/LCG_97a/Python/2.7.16/x86_64-centos7-gcc8-opt/lib:/cvmfs/atlas-nightlies.cern.ch/repo/sw/21.2_AthAnalysis_x86_64-centos7-gcc8-opt/2021-12-06T0337/AthAnalysisExternals/21.2.196/InstallArea/x86_64-centos7-gcc8-opt/lib:/cvmfs/atlas-nightlies.cern.ch/repo/sw/21.2_AthAnalysis_x86_64-centos7-gcc8-opt/sw/lcg/releases/LCG_97a/Boost/1.72.0/x86_64-centos7-gcc8-opt/lib:/cvmfs/atlas-nightlies.cern.ch/repo/sw/21.2_AthAnalysis_x86_64-centos7-gcc8-opt/sw/lcg/releases/LCG_97a/ROOT/v6.20.06/x86_64-centos7-gcc8-opt/lib:/cvmfs/atlas-nightlies.cern.ch/repo/sw/21.2_AthAnalysis_x86_64-centos7-gcc8-opt/2021-12-09T0337/GAUDI/21.2.196/InstallArea/x86_64-centos7-gcc8-opt/lib:/cvmfs/atlas-nightlies.cern.ch/repo/sw/21.2_AthAnalysis_x86_64-centos7-gcc8-opt/2021-12-06T0337/AthAnalysis/21.2.196/InstallArea/x86_64-centos7-gcc8-opt/lib:/cvmfs/atlas-nightlies.cern.ch/repo/sw/21.2_AthAnalysis_x86_64-centos7-gcc8-opt/sw/lcg/releases/LCG_97a/graphviz/2.40.1/x86_64-centos7-gcc8-opt/lib:/cvmfs/atlas-nightlies.cern.ch/repo/sw/21.2_AthAnalysis_x86_64-centos7-gcc8-opt/2021-12-09T0337/AthAnalysis/21.2.196/InstallArea/x86_64-centos7-gcc8-opt/lib:/cvmfs/atlas-nightlies.cern.ch/repo/sw/21.2_AthAnalysis_x86_64-centos7-gcc8-opt/2021-12-09T0337/AthAnalysisExternals/21.2.196/InstallArea/x86_64-centos7-gcc8-opt/lib:/cvmfs/atlas-nightlies.cern.ch/repo/sw/21.2_AthAnalysis_x86_64-centos7-gcc8-opt/sw/lcg/releases/LCG_97a/GSL/2.6/x86_64-centos7-gcc8-opt/lib:/cvmfs/atlas-nightlies.cern.ch/repo/sw/21.2_AthAnalysis_x86_64-centos7-gcc8-opt/sw/lcg/releases/LCG_97a/Davix/0.7.3/x86_64-centos7-gcc8-opt/lib64:/cvmfs/atlas-nightlies.cern.ch/repo/sw/21.2_AthAnalysis_x86_64-centos7-gcc8-opt/sw/lcg/releases/LCG_97a/png/1.6.37/x86_64-centos7-gcc8-opt/lib:/cvmfs/atlas-nightlies.cern.ch/repo/sw/21.2_AthAnalysis_x86_64-centos7-gcc8-opt/sw/lcg/releases/LCG_97a/zlib/1.2.11/x86_64-centos7-gcc8-opt/lib:/cvmfs/atlas-nightlies.cern.ch/repo/sw/21.2_AthAnalysis_x86_64-centos7-gcc8-opt/sw/lcg/releases/LCG_97a/blas/0.3.9.openblas/x86_64-centos7-gcc8-opt/lib:/cvmfs/atlas-nightlies.cern.ch/repo/sw/21.2_AthAnalysis_x86_64-centos7-gcc8-opt/sw/lcg/releases/LCG_97a/vdt/0.4.3/x86_64-centos7-gcc8-opt/lib:/cvmfs/atlas-nightlies.cern.ch/repo/sw/21.2_AthAnalysis_x86_64-centos7-gcc8-opt/2021-12-09T0337/AthAnalysisExternals/21.2.196/InstallArea/x86_64-centos7-gcc8-opt/lib64:/cvmfs/atlas-nightlies.cern.ch/repo/sw/21.2_AthAnalysis_x86_64-centos7-gcc8-opt/sw/lcg/releases/LCG_97a/gperftools/2.7/x86_64-centos7-gcc8-opt/lib:/cvmfs/atlas-nightlies.cern.ch/repo/sw/21.2_AthAnalysis_x86_64-centos7-gcc8-opt/sw/lcg/releases/LCG_97a/CppUnit/1.14.0/x86_64-centos7-gcc8-opt/lib:/cvmfs/atlas-nightlies.cern.ch/repo/sw/21.2_AthAnalysis_x86_64-centos7-gcc8-opt/sw/lcg/releases/LCG_97a/XercesC/3.1.3/x86_64-centos7-gcc8-opt/lib:/cvmfs/atlas-nightlies.cern.ch/repo/sw/21.2_AthAnalysis_x86_64-centos7-gcc8-opt/sw/lcg/releases/LCG_97a/xrootd/4.12.2/x86_64-centos7-gcc8-opt/lib64:/cvmfs/atlas-nightlies.cern.ch/repo/sw/21.2_AthAnalysis_x86_64-centos7-gcc8-opt/sw/lcg/releases/LCG_97a/HepPDT/2.06.01/x86_64-centos7-gcc8-opt/lib:/cvmfs/atlas-nightlies.cern.ch/repo/sw/21.2_AthAnalysis_x86_64-centos7-gcc8-opt/sw/lcg/releases/LCG_97a/HepMC/2.06.11/x86_64-centos7-gcc8-opt/lib:/cvmfs/atlas-nightlies.cern.ch/repo/sw/21.2_AthAnalysis_x86_64-centos7-gcc8-opt/sw/lcg/releases/LCG_97a/fastjet/3.3.2/x86_64-centos7-gcc8-opt/lib:/cvmfs/atlas-nightlies.cern.ch/repo/sw/21.2_AthAnalysis_x86_64-centos7-gcc8-opt/sw/lcg/releases/LCG_97a/fjcontrib/1.044/x86_64-centos7-gcc8-opt/lib:/cvmfs/atlas-nightlies.cern.ch/repo/sw/21.2_AthAnalysis_x86_64-centos7-gcc8-opt/sw/lcg/releases/LCG_97a/COOL/3_2_4/x86_64-centos7-gcc8-opt/lib:/cvmfs/atlas-nightlies.cern.ch/repo/sw/21.2_AthAnalysis_x86_64-centos7-gcc8-opt/sw/lcg/releases/LCG_97a/CORAL/3_2_4/x86_64-centos7-gcc8-opt/lib:/cvmfs/atlas-nightlies.cern.ch/repo/sw/21.2_AthAnalysis_x86_64-centos7-gcc8-opt/sw/lcg/releases/LCG_97a/libxml2/2.9.9/x86_64-centos7-gcc8-opt/lib:/cvmfs/atlas-nightlies.cern.ch/repo/sw/21.2_AthAnalysis_x86_64-centos7-gcc8-opt/sw/lcg/releases/LCG_97a/libunwind/1.3.1/x86_64-centos7-gcc8-opt/lib:/cvmfs/sft.cern.ch/lcg/releases/gcc/8.3.0-cebb0/x86_64-centos7/lib:/cvmfs/sft.cern.ch/lcg/releases/gcc/8.3.0-cebb0/x86_64-centos7/lib64:/cvmfs/sft.cern.ch/lcg/releases/binutils/2.30-e5b21/x86_64-centos7/lib"
declare -x LESSOPEN="||/usr/bin/lesspipe.sh %s"
declare -x LHAPATH="/cvmfs/sft.cern.ch/lcg/external/lhapdfsets/current:/cvmfs/atlas-nightlies.cern.ch/repo/sw/21.2_AthAnalysis_x86_64-centos7-gcc8-opt/2021-12-09T0337/AthAnalysis/21.2.196/InstallArea/x86_64-centos7-gcc8-opt/../../../../AthAnalysisExternals/21.2.196/InstallArea/x86_64-centos7-gcc8-opt/share/LHAPDF"
declare -x LHAPDF_DATA_PATH="/cvmfs/sft.cern.ch/lcg/external/lhapdfsets/current:/cvmfs/atlas-nightlies.cern.ch/repo/sw/21.2_AthAnalysis_x86_64-centos7-gcc8-opt/2021-12-09T0337/AthAnalysis/21.2.196/InstallArea/x86_64-centos7-gcc8-opt/../../../../AthAnalysisExternals/21.2.196/InstallArea/x86_64-centos7-gcc8-opt/share/LHAPDF"
declare -x LINES="18"
declare -x LOADEDMODULES=""
declare -x LOCAL_TASK_ID="6"
declare -x LOGNAME="nviauxma"
declare -x LS_COLORS="rs=0:di=38;5;27:ln=38;5;51:mh=44;38;5;15:pi=40;38;5;11:so=38;5;13:do=38;5;5:bd=48;5;232;38;5;11:cd=48;5;232;38;5;3:or=48;5;232;38;5;9:mi=05;48;5;232;38;5;15:su=48;5;196;38;5;15:sg=48;5;11;38;5;16:ca=48;5;196;38;5;226:tw=48;5;10;38;5;16:ow=48;5;10;38;5;21:st=48;5;21;38;5;15:ex=38;5;34:*.tar=38;5;9:*.tgz=38;5;9:*.arc=38;5;9:*.arj=38;5;9:*.taz=38;5;9:*.lha=38;5;9:*.lz4=38;5;9:*.lzh=38;5;9:*.lzma=38;5;9:*.tlz=38;5;9:*.txz=38;5;9:*.tzo=38;5;9:*.t7z=38;5;9:*.zip=38;5;9:*.z=38;5;9:*.Z=38;5;9:*.dz=38;5;9:*.gz=38;5;9:*.lrz=38;5;9:*.lz=38;5;9:*.lzo=38;5;9:*.xz=38;5;9:*.bz2=38;5;9:*.bz=38;5;9:*.tbz=38;5;9:*.tbz2=38;5;9:*.tz=38;5;9:*.deb=38;5;9:*.rpm=38;5;9:*.jar=38;5;9:*.war=38;5;9:*.ear=38;5;9:*.sar=38;5;9:*.rar=38;5;9:*.alz=38;5;9:*.ace=38;5;9:*.zoo=38;5;9:*.cpio=38;5;9:*.7z=38;5;9:*.rz=38;5;9:*.cab=38;5;9:*.jpg=38;5;13:*.jpeg=38;5;13:*.gif=38;5;13:*.bmp=38;5;13:*.pbm=38;5;13:*.pgm=38;5;13:*.ppm=38;5;13:*.tga=38;5;13:*.xbm=38;5;13:*.xpm=38;5;13:*.tif=38;5;13:*.tiff=38;5;13:*.png=38;5;13:*.svg=38;5;13:*.svgz=38;5;13:*.mng=38;5;13:*.pcx=38;5;13:*.mov=38;5;13:*.mpg=38;5;13:*.mpeg=38;5;13:*.m2v=38;5;13:*.mkv=38;5;13:*.webm=38;5;13:*.ogm=38;5;13:*.mp4=38;5;13:*.m4v=38;5;13:*.mp4v=38;5;13:*.vob=38;5;13:*.qt=38;5;13:*.nuv=38;5;13:*.wmv=38;5;13:*.asf=38;5;13:*.rm=38;5;13:*.rmvb=38;5;13:*.flc=38;5;13:*.avi=38;5;13:*.fli=38;5;13:*.flv=38;5;13:*.gl=38;5;13:*.dl=38;5;13:*.xcf=38;5;13:*.xwd=38;5;13:*.yuv=38;5;13:*.cgm=38;5;13:*.emf=38;5;13:*.axv=38;5;13:*.anx=38;5;13:*.ogv=38;5;13:*.ogx=38;5;13:*.aac=38;5;45:*.au=38;5;45:*.flac=38;5;45:*.mid=38;5;45:*.midi=38;5;45:*.mka=38;5;45:*.mp3=38;5;45:*.mpc=38;5;45:*.ogg=38;5;45:*.ra=38;5;45:*.wav=38;5;45:*.axa=38;5;45:*.oga=38;5;45:*.spx=38;5;45:*.xspf=38;5;45:"
declare -x MAIL="/var/spool/mail/nviauxma"
declare -x MAKEFLAGS="-j10 -l10"
declare -x MANPATH="/cvmfs/sft.cern.ch/lcg/releases/gcc/8.3.0-cebb0/x86_64-centos7/share/man:/cvmfs/sft.cern.ch/lcg/releases/binutils/2.30-e5b21/x86_64-centos7/share/man::/opt/puppetlabs/puppet/share/man"
declare -x MODULEPATH="/usr/share/Modules/modulefiles:/etc/modulefiles"
declare -x MODULESHOME="/usr/share/Modules"
declare -x MYPROXY_SERVER="myproxy.cern.ch"
declare -x Name="NViaux20"
declare -x OLDPWD
declare -x OriginalArea="/afs/cern.ch/user/n/nviauxma/ZmassCalibration3/build/source"
declare -x OriginalPatch="21.2"
declare -x OriginalProject="AthAnalysis"
declare -x OriginalVersion="2021-12-09T0337"
declare -x OutCfg="./TMP/2021-12-09/NViaux20/CONFIG/out_fileNames_lfwAS2x551kWhAHW7sTp.conf"
declare -x PATH="/afs/cern.ch/user/n/nviauxma/ZmassCalibration3/build/x86_64-centos7-gcc8-opt/share:/afs/cern.ch/user/n/nviauxma/ZmassCalibration3/build/x86_64-centos7-gcc8-opt/bin:/cvmfs/atlas-nightlies.cern.ch/repo/sw/21.2_AthAnalysis_x86_64-centos7-gcc8-opt/sw/lcg/releases/LCG_97a/Python/2.7.16/x86_64-centos7-gcc8-opt/bin:/cvmfs/atlas-nightlies.cern.ch/repo/sw/21.2_AthAnalysis_x86_64-centos7-gcc8-opt/sw/lcg/releases/LCG_97a/ROOT/v6.20.06/x86_64-centos7-gcc8-opt/bin:/cvmfs/atlas-nightlies.cern.ch/repo/sw/21.2_AthAnalysis_x86_64-centos7-gcc8-opt/2021-12-06T0337/AthAnalysisExternals/21.2.196/InstallArea/x86_64-centos7-gcc8-opt/bin:/cvmfs/atlas-nightlies.cern.ch/repo/sw/21.2_AthAnalysis_x86_64-centos7-gcc8-opt/2021-12-06T0337/AthAnalysis/21.2.196/InstallArea/x86_64-centos7-gcc8-opt/bin:/cvmfs/atlas-nightlies.cern.ch/repo/sw/21.2_AthAnalysis_x86_64-centos7-gcc8-opt/sw/lcg/releases/LCG_97a/graphviz/2.40.1/x86_64-centos7-gcc8-opt/bin:/cvmfs/atlas-nightlies.cern.ch/repo/sw/21.2_AthAnalysis_x86_64-centos7-gcc8-opt/sw/lcg/releases/LCG_97a/doxygen/1.8.15/x86_64-centos7-gcc8-opt/bin:/tmp/nviauxma/.asetup-sysbin-CA0zyX_17918:/cvmfs/atlas-nightlies.cern.ch/repo/sw/21.2_AthAnalysis_x86_64-centos7-gcc8-opt/2021-12-09T0337/AthAnalysis/21.2.196/InstallArea/x86_64-centos7-gcc8-opt/share:/cvmfs/atlas-nightlies.cern.ch/repo/sw/21.2_AthAnalysis_x86_64-centos7-gcc8-opt/2021-12-09T0337/AthAnalysis/21.2.196/InstallArea/x86_64-centos7-gcc8-opt/bin:/cvmfs/atlas-nightlies.cern.ch/repo/sw/21.2_AthAnalysis_x86_64-centos7-gcc8-opt/2021-12-09T0337/AthAnalysisExternals/21.2.196/InstallArea/x86_64-centos7-gcc8-opt/share:/cvmfs/atlas-nightlies.cern.ch/repo/sw/21.2_AthAnalysis_x86_64-centos7-gcc8-opt/2021-12-09T0337/AthAnalysisExternals/21.2.196/InstallArea/x86_64-centos7-gcc8-opt/bin:/cvmfs/atlas-nightlies.cern.ch/repo/sw/21.2_AthAnalysis_x86_64-centos7-gcc8-opt/sw/lcg/releases/LCG_97a/xrootd/4.12.2/x86_64-centos7-gcc8-opt/bin:/cvmfs/atlas-nightlies.cern.ch/repo/sw/21.2_AthAnalysis_x86_64-centos7-gcc8-opt/sw/lcg/releases/LCG_97a/chardet/3.0.4/x86_64-centos7-gcc8-opt/bin:/cvmfs/atlas-nightlies.cern.ch/repo/sw/21.2_AthAnalysis_x86_64-centos7-gcc8-opt/sw/lcg/releases/LCG_97a/pip/19.1.1/x86_64-centos7-gcc8-opt/bin:/cvmfs/atlas-nightlies.cern.ch/repo/sw/21.2_AthAnalysis_x86_64-centos7-gcc8-opt/sw/lcg/releases/LCG_97a/COOL/3_2_4/x86_64-centos7-gcc8-opt/bin:/cvmfs/atlas-nightlies.cern.ch/repo/sw/21.2_AthAnalysis_x86_64-centos7-gcc8-opt/sw/lcg/releases/LCG_97a/CORAL/3_2_4/x86_64-centos7-gcc8-opt/bin:/cvmfs/atlas.cern.ch/repo/ATLASLocalRootBase/x86_64/Cmake/3.18.3/Linux-x86_64/bin:/cvmfs/sft.cern.ch/lcg/releases/gcc/8.3.0-cebb0/x86_64-centos7/bin:/cvmfs/sft.cern.ch/lcg/releases/binutils/2.30-e5b21/x86_64-centos7/bin:/afs/cern.ch/atlas/scripts:/afs/cern.ch/user/n/nviauxma/.vscode-server/bin/b3318bc0524af3d74034b8bb8a64df0ccf35549a/bin:/usr/sue/bin:/usr/lib64/qt-3.3/bin:/usr/condabin:/usr/local/bin:/usr/bin:/usr/local/sbin:/usr/sbin:/opt/puppetlabs/bin:/afs/cern.ch/user/n/nviauxma/bin"
declare -x PWD="/afs/cern.ch/user/n/nviauxma/ZmassCalibration3/build/x86_64-centos7-gcc8-opt/python/MuonSagittaBias"
declare -x PYTHONHOME="/cvmfs/atlas-nightlies.cern.ch/repo/sw/21.2_AthAnalysis_x86_64-centos7-gcc8-opt/sw/lcg/releases/LCG_97a/Python/2.7.16/x86_64-centos7-gcc8-opt"
declare -x PYTHONPATH="/afs/cern.ch/user/n/nviauxma/ZmassCalibration3/build/x86_64-centos7-gcc8-opt/python:/afs/cern.ch/user/n/nviauxma/ZmassCalibration3/build/x86_64-centos7-gcc8-opt/lib:/cvmfs/atlas-nightlies.cern.ch/repo/sw/21.2_AthAnalysis_x86_64-centos7-gcc8-opt/sw/lcg/releases/LCG_97a/ROOT/v6.20.06/x86_64-centos7-gcc8-opt/lib:/cvmfs/atlas-nightlies.cern.ch/repo/sw/21.2_AthAnalysis_x86_64-centos7-gcc8-opt/2021-12-06T0337/AthAnalysisExternals/21.2.196/InstallArea/x86_64-centos7-gcc8-opt/python:/cvmfs/atlas-nightlies.cern.ch/repo/sw/21.2_AthAnalysis_x86_64-centos7-gcc8-opt/2021-12-09T0337/GAUDI/21.2.196/InstallArea/x86_64-centos7-gcc8-opt/python:/cvmfs/atlas-nightlies.cern.ch/repo/sw/21.2_AthAnalysis_x86_64-centos7-gcc8-opt/2021-12-06T0337/AthAnalysis/21.2.196/InstallArea/x86_64-centos7-gcc8-opt/python:/cvmfs/atlas-nightlies.cern.ch/repo/sw/21.2_AthAnalysis_x86_64-centos7-gcc8-opt/2021-12-09T0337/AthAnalysis/21.2.196/InstallArea/x86_64-centos7-gcc8-opt/python:/cvmfs/atlas-nightlies.cern.ch/repo/sw/21.2_AthAnalysis_x86_64-centos7-gcc8-opt/2021-12-09T0337/AthAnalysis/21.2.196/InstallArea/x86_64-centos7-gcc8-opt/lib:/cvmfs/atlas-nightlies.cern.ch/repo/sw/21.2_AthAnalysis_x86_64-centos7-gcc8-opt/2021-12-09T0337/AthAnalysisExternals/21.2.196/InstallArea/x86_64-centos7-gcc8-opt/python:/cvmfs/atlas-nightlies.cern.ch/repo/sw/21.2_AthAnalysis_x86_64-centos7-gcc8-opt/2021-12-09T0337/AthAnalysisExternals/21.2.196/InstallArea/x86_64-centos7-gcc8-opt/lib:/cvmfs/atlas-nightlies.cern.ch/repo/sw/21.2_AthAnalysis_x86_64-centos7-gcc8-opt/sw/lcg/releases/LCG_97a/requests/2.22.0/x86_64-centos7-gcc8-opt/lib/python2.7/site-packages:/cvmfs/atlas-nightlies.cern.ch/repo/sw/21.2_AthAnalysis_x86_64-centos7-gcc8-opt/sw/lcg/releases/LCG_97a/chardet/3.0.4/x86_64-centos7-gcc8-opt/lib/python2.7/site-packages:/cvmfs/atlas-nightlies.cern.ch/repo/sw/21.2_AthAnalysis_x86_64-centos7-gcc8-opt/sw/lcg/releases/LCG_97a/idna/2.8/x86_64-centos7-gcc8-opt/lib/python2.7/site-packages:/cvmfs/atlas-nightlies.cern.ch/repo/sw/21.2_AthAnalysis_x86_64-centos7-gcc8-opt/sw/lcg/releases/LCG_97a/urllib3/1.25.3/x86_64-centos7-gcc8-opt/lib/python2.7/site-packages:/cvmfs/atlas-nightlies.cern.ch/repo/sw/21.2_AthAnalysis_x86_64-centos7-gcc8-opt/sw/lcg/releases/LCG_97a/pip/19.1.1/x86_64-centos7-gcc8-opt/lib/python2.7/site-packages:/cvmfs/atlas-nightlies.cern.ch/repo/sw/21.2_AthAnalysis_x86_64-centos7-gcc8-opt/sw/lcg/releases/LCG_97a/COOL/3_2_4/x86_64-centos7-gcc8-opt/python:/cvmfs/atlas-nightlies.cern.ch/repo/sw/21.2_AthAnalysis_x86_64-centos7-gcc8-opt/sw/lcg/releases/LCG_97a/CORAL/3_2_4/x86_64-centos7-gcc8-opt/python:/cvmfs/atlas-nightlies.cern.ch/repo/sw/21.2_AthAnalysis_x86_64-centos7-gcc8-opt/sw/lcg/releases/LCG_97a/CORAL/3_2_4/x86_64-centos7-gcc8-opt/lib:/cvmfs/atlas-nightlies.cern.ch/repo/sw/21.2_AthAnalysis_x86_64-centos7-gcc8-opt/2021-12-09T0337/AthAnalysis/21.2.196/InstallArea/x86_64-centos7-gcc8-opt/../../../../AthAnalysisExternals/21.2.196/InstallArea/x86_64-centos7-gcc8-opt/python:/cvmfs/atlas-nightlies.cern.ch/repo/sw/21.2_AthAnalysis_x86_64-centos7-gcc8-opt/sw/lcg/releases/LCG_97a/kiwisolver/1.0.1/x86_64-centos7-gcc8-opt/lib/python2.7/site-packages:/cvmfs/atlas-nightlies.cern.ch/repo/sw/21.2_AthAnalysis_x86_64-centos7-gcc8-opt/sw/lcg/releases/LCG_97a/cycler/0.10.0/x86_64-centos7-gcc8-opt/lib/python2.7/site-packages"
declare -x QTDIR="/usr/lib64/qt-3.3"
declare -x QTINC="/usr/lib64/qt-3.3/include"
declare -x QTLIB="/usr/lib64/qt-3.3/lib"
declare -x QT_GRAPHICSSYSTEM="native"
declare -x QT_GRAPHICSSYSTEM_CHECKED="1"
declare -x QT_PLUGIN_PATH="/usr/lib64/kde4/plugins:/usr/lib/kde4/plugins"
declare -x ROOTCORE_RELEASE_SERIES="25"
declare -x ROOTCORE_TEST_DATA="/cvmfs/atlas-nightlies.cern.ch/repo/data/data-art/CommonInputs/DAOD_PHYSVAL"
declare -x ROOTCORE_TEST_FILE="/cvmfs/atlas-nightlies.cern.ch/repo/data/data-art/CommonInputs/DAOD_PHYSVAL/mc16_13TeV.410501.PowhegPythia8EvtGen_A14_ttbar_hdamp258p75_nonallhad.DAOD_PHYSVAL.e5458_s3126_r9364_r9315_AthDerivation-21.2.1.0.root"
declare -x ROOTSYS="/cvmfs/atlas-nightlies.cern.ch/repo/sw/21.2_AthAnalysis_x86_64-centos7-gcc8-opt/sw/lcg/releases/ROOT/v6.20.06-3f7fd/x86_64-centos7-gcc8-opt"
declare -x ROOT_INCLUDE_PATH="/afs/cern.ch/user/n/nviauxma/ZmassCalibration3/build/x86_64-centos7-gcc8-opt/include:/cvmfs/atlas-nightlies.cern.ch/repo/sw/21.2_AthAnalysis_x86_64-centos7-gcc8-opt/sw/lcg/releases/LCG_97a/tbb/2020_U1/x86_64-centos7-gcc8-opt/include:/cvmfs/atlas-nightlies.cern.ch/repo/sw/21.2_AthAnalysis_x86_64-centos7-gcc8-opt/sw/lcg/releases/LCG_97a/Python/2.7.16/x86_64-centos7-gcc8-opt/include/python2.7:/cvmfs/atlas-nightlies.cern.ch/repo/sw/21.2_AthAnalysis_x86_64-centos7-gcc8-opt/2021-12-06T0337/AthAnalysisExternals/21.2.196/InstallArea/x86_64-centos7-gcc8-opt/include:/cvmfs/atlas-nightlies.cern.ch/repo/sw/21.2_AthAnalysis_x86_64-centos7-gcc8-opt/sw/lcg/releases/LCG_97a/Boost/1.72.0/x86_64-centos7-gcc8-opt/include:/cvmfs/atlas-nightlies.cern.ch/repo/sw/21.2_AthAnalysis_x86_64-centos7-gcc8-opt/sw/lcg/releases/LCG_97a/ROOT/v6.20.06/x86_64-centos7-gcc8-opt/include:/cvmfs/atlas-nightlies.cern.ch/repo/sw/21.2_AthAnalysis_x86_64-centos7-gcc8-opt/2021-12-09T0337/GAUDI/21.2.196/InstallArea/x86_64-centos7-gcc8-opt/include:/cvmfs/atlas-nightlies.cern.ch/repo/sw/21.2_AthAnalysis_x86_64-centos7-gcc8-opt/2021-12-06T0337/AthAnalysis/21.2.196/InstallArea/x86_64-centos7-gcc8-opt/include:/cvmfs/atlas-nightlies.cern.ch/repo/sw/21.2_AthAnalysis_x86_64-centos7-gcc8-opt/sw/lcg/releases/LCG_97a/graphviz/2.40.1/x86_64-centos7-gcc8-opt/include:/cvmfs/atlas-nightlies.cern.ch/repo/sw/21.2_AthAnalysis_x86_64-centos7-gcc8-opt/2021-12-09T0337/AthAnalysis/21.2.196/InstallArea/x86_64-centos7-gcc8-opt/include:/cvmfs/atlas-nightlies.cern.ch/repo/sw/21.2_AthAnalysis_x86_64-centos7-gcc8-opt/2021-12-09T0337/AthAnalysisExternals/21.2.196/InstallArea/x86_64-centos7-gcc8-opt/include:/cvmfs/atlas-nightlies.cern.ch/repo/sw/21.2_AthAnalysis_x86_64-centos7-gcc8-opt/sw/lcg/releases/LCG_97a/GSL/2.6/x86_64-centos7-gcc8-opt/include:/cvmfs/atlas-nightlies.cern.ch/repo/sw/21.2_AthAnalysis_x86_64-centos7-gcc8-opt/sw/lcg/releases/LCG_97a/Davix/0.7.3/x86_64-centos7-gcc8-opt/include/davix:/cvmfs/atlas-nightlies.cern.ch/repo/sw/21.2_AthAnalysis_x86_64-centos7-gcc8-opt/sw/lcg/releases/LCG_97a/png/1.6.37/x86_64-centos7-gcc8-opt/include:/cvmfs/atlas-nightlies.cern.ch/repo/sw/21.2_AthAnalysis_x86_64-centos7-gcc8-opt/sw/lcg/releases/LCG_97a/zlib/1.2.11/x86_64-centos7-gcc8-opt/include:/cvmfs/atlas-nightlies.cern.ch/repo/sw/21.2_AthAnalysis_x86_64-centos7-gcc8-opt/sw/lcg/releases/LCG_97a/vdt/0.4.3/x86_64-centos7-gcc8-opt/include:/cvmfs/atlas-nightlies.cern.ch/repo/sw/21.2_AthAnalysis_x86_64-centos7-gcc8-opt/sw/lcg/releases/LCG_97a/valgrind/3.15.0/x86_64-centos7-gcc8-opt/include:/cvmfs/atlas-nightlies.cern.ch/repo/sw/21.2_AthAnalysis_x86_64-centos7-gcc8-opt/sw/lcg/releases/LCG_97a/AIDA/3.2.1/x86_64-centos7-gcc8-opt/src/cpp:/cvmfs/atlas-nightlies.cern.ch/repo/sw/21.2_AthAnalysis_x86_64-centos7-gcc8-opt/sw/lcg/releases/LCG_97a/gperftools/2.7/x86_64-centos7-gcc8-opt/include:/cvmfs/atlas-nightlies.cern.ch/repo/sw/21.2_AthAnalysis_x86_64-centos7-gcc8-opt/sw/lcg/releases/LCG_97a/CppUnit/1.14.0/x86_64-centos7-gcc8-opt/include:/cvmfs/atlas-nightlies.cern.ch/repo/sw/21.2_AthAnalysis_x86_64-centos7-gcc8-opt/sw/lcg/releases/LCG_97a/XercesC/3.1.3/x86_64-centos7-gcc8-opt/include:/cvmfs/atlas-nightlies.cern.ch/repo/sw/21.2_AthAnalysis_x86_64-centos7-gcc8-opt/sw/lcg/releases/LCG_97a/xrootd/4.12.2/x86_64-centos7-gcc8-opt/include:/cvmfs/atlas-nightlies.cern.ch/repo/sw/21.2_AthAnalysis_x86_64-centos7-gcc8-opt/sw/lcg/releases/LCG_97a/MCGenerators/heputils/1.3.2/x86_64-centos7-gcc8-opt/include:/cvmfs/atlas-nightlies.cern.ch/repo/sw/21.2_AthAnalysis_x86_64-centos7-gcc8-opt/sw/lcg/releases/LCG_97a/MCGenerators/mcutils/1.3.4/x86_64-centos7-gcc8-opt/include:/cvmfs/atlas-nightlies.cern.ch/repo/sw/21.2_AthAnalysis_x86_64-centos7-gcc8-opt/sw/lcg/releases/LCG_97a/HepPDT/2.06.01/x86_64-centos7-gcc8-opt/include:/cvmfs/atlas-nightlies.cern.ch/repo/sw/21.2_AthAnalysis_x86_64-centos7-gcc8-opt/sw/lcg/releases/LCG_97a/HepMC/2.06.11/x86_64-centos7-gcc8-opt/include:/cvmfs/atlas-nightlies.cern.ch/repo/sw/21.2_AthAnalysis_x86_64-centos7-gcc8-opt/2021-12-09T0337/AthAnalysisExternals/21.2.196/InstallArea/x86_64-centos7-gcc8-opt/include/onnxruntime:/cvmfs/atlas-nightlies.cern.ch/repo/sw/21.2_AthAnalysis_x86_64-centos7-gcc8-opt/sw/lcg/releases/LCG_97a/fastjet/3.3.2/x86_64-centos7-gcc8-opt/include:/cvmfs/atlas-nightlies.cern.ch/repo/sw/21.2_AthAnalysis_x86_64-centos7-gcc8-opt/sw/lcg/releases/LCG_97a/fjcontrib/1.044/x86_64-centos7-gcc8-opt/include:/cvmfs/atlas-nightlies.cern.ch/repo/sw/21.2_AthAnalysis_x86_64-centos7-gcc8-opt/sw/lcg/releases/LCG_97a/eigen/3.3.7/x86_64-centos7-gcc8-opt/include/eigen3:/cvmfs/atlas-nightlies.cern.ch/repo/sw/21.2_AthAnalysis_x86_64-centos7-gcc8-opt/sw/lcg/releases/LCG_97a/COOL/3_2_4/x86_64-centos7-gcc8-opt/include:/cvmfs/atlas-nightlies.cern.ch/repo/sw/21.2_AthAnalysis_x86_64-centos7-gcc8-opt/sw/lcg/releases/LCG_97a/CORAL/3_2_4/x86_64-centos7-gcc8-opt/include:/cvmfs/atlas-nightlies.cern.ch/repo/sw/21.2_AthAnalysis_x86_64-centos7-gcc8-opt/sw/lcg/releases/LCG_97a/libxml2/2.9.9/x86_64-centos7-gcc8-opt/include/libxml2:/cvmfs/atlas-nightlies.cern.ch/repo/sw/21.2_AthAnalysis_x86_64-centos7-gcc8-opt/sw/lcg/releases/LCG_97a/libunwind/1.3.1/x86_64-centos7-gcc8-opt/include"
declare -x SHELL="/bin/bash"
declare -x SHLVL="8"
declare -x SITE_NAME="CERN-PROD"
declare -x SSH_ASKPASS="/usr/libexec/openssh/gnome-ssh-askpass"
declare -x SSH_CLIENT="190.8.103.104 64627 22"
declare -x SSH_CONNECTION="190.8.103.104 64627 137.138.151.116 22"
declare -x SSL_CERT_DIR="/cvmfs/atlas.cern.ch/repo/ATLASLocalRootBase/etc/grid-security-emi/certificates"
declare -x STAGE_HOST="castoratlas"
declare -x STAGE_SVCCLASS="default"
declare -x TCMALLOCDIR="/cvmfs/atlas-nightlies.cern.ch/repo/sw/21.2_AthAnalysis_x86_64-centos7-gcc8-opt/sw/lcg/releases/LCG_97a/gperftools/2.7/x86_64-centos7-gcc8-opt/lib"
declare -x TDAQ_RELEASE_BASE="/cvmfs/atlas.cern.ch/repo/sw/tdaq"
declare -x TERM="xterm-256color"
declare -x TERM_PROGRAM="vscode"
declare -x TERM_PROGRAM_VERSION="1.62.0"
declare -x TMPDIR="./TMP/2021-12-09/NViaux20/6m9GH9zslXy87JkVxlPBAi36knk61kx1T2ZNMbbXUavffa9SUK"
declare -x TNS_ADMIN="/eos/project/o/oracle/public/admin"
declare -x TestArea="/afs/cern.ch/user/n/nviauxma/ZmassCalibration3/build"
declare -x USER="nviauxma"
declare -x VALGRIND_LIB="/cvmfs/atlas-nightlies.cern.ch/repo/sw/21.2_AthAnalysis_x86_64-centos7-gcc8-opt/sw/lcg/releases/LCG_97a/valgrind/3.15.0/x86_64-centos7-gcc8-opt/lib/valgrind"
declare -x VALGRIND_OPTS="--smc-check=all"
declare -x VIEWSDIR="/cvmfs/sft.cern.ch/lcg/views"
declare -x VIRTUALENVWRAPPER_SCRIPT="/usr/bin/virtualenvwrapper.sh"
declare -x VSCODE_GIT_ASKPASS_MAIN="/afs/cern.ch/user/n/nviauxma/.vscode-server/bin/b3318bc0524af3d74034b8bb8a64df0ccf35549a/extensions/git/dist/askpass-main.js"
declare -x VSCODE_GIT_ASKPASS_NODE="/afs/cern.ch/user/n/nviauxma/.vscode-server/bin/b3318bc0524af3d74034b8bb8a64df0ccf35549a/node"
declare -x VSCODE_GIT_IPC_HANDLE="/run/user/86006/vscode-git-b1f08567e5.sock"
declare -x VSCODE_IPC_HOOK_CLI="/run/user/86006/vscode-ipc-f20171c1-3033-410f-a91b-195c4dcfb4cd.sock"
declare -x WorkDir_DIR="/afs/cern.ch/user/n/nviauxma/ZmassCalibration3/build/x86_64-centos7-gcc8-opt"
declare -x WorkDir_PLATFORM="x86_64-centos7-gcc8-opt"
declare -x WorkDir_SET_UP="1"
declare -x WorkDir_VERSION="ZmassCalibration3"
declare -x XDG_DATA_DIRS="/afs/cern.ch/user/n/nviauxma/.local/share/flatpak/exports/share:/var/lib/flatpak/exports/share:/usr/local/share:/usr/share"
declare -x XDG_RUNTIME_DIR="/run/user/86006"
declare -x XDG_SESSION_ID="c17401"
declare -x XMLPATH="/afs/cern.ch/user/n/nviauxma/ZmassCalibration3/build/x86_64-centos7-gcc8-opt/XML:/cvmfs/atlas-nightlies.cern.ch/repo/sw/21.2_AthAnalysis_x86_64-centos7-gcc8-opt/2021-12-09T0337/AthAnalysis/21.2.196/InstallArea/x86_64-centos7-gcc8-opt/XML:/cvmfs/atlas-nightlies.cern.ch/repo/sw/21.2_AthAnalysis_x86_64-centos7-gcc8-opt/2021-12-09T0337/AthAnalysisExternals/21.2.196/InstallArea/x86_64-centos7-gcc8-opt/XML"
declare -x _VIRTUALENVWRAPPER_API=" mkvirtualenv rmvirtualenv lsvirtualenv showvirtualenv workon add2virtualenv cdsitepackages cdvirtualenv lssitepackages toggleglobalsitepackages cpvirtualenv setvirtualenvproject mkproject cdproject mktmpenv wipeenv allvirtualenv mkvirtualenv rmvirtualenv lsvirtualenv showvirtualenv workon add2virtualenv cdsitepackages cdvirtualenv lssitepackages toggleglobalsitepackages cpvirtualenv setvirtualenvproject mkproject cdproject mktmpenv wipeenv allvirtualenv mkvirtualenv rmvirtualenv lsvirtualenv showvirtualenv workon add2virtualenv cdsitepackages cdvirtualenv lssitepackages toggleglobalsitepackages cpvirtualenv setvirtualenvproject mkproject cdproject mktmpenv wipeenv allvirtualenv"
declare -x rcSetup="/cvmfs/atlas.cern.ch/repo/ATLASLocalRootBase/x86_64/rcSetup/00-04-18"
###############################################################################################
 
###############################################################################################
Loaded the Cluster Control module for LOCAL multi-threading
Got TaskID 6
InFile=./TMP/2021-12-09/NViaux20/CONFIG/GnoeEL8WfIfLr621peQzzQToytN6SAycx3snRa04mZNSyvzLbJFWzqu4vXsFho5p8hKXlKbVN3gxdsCPxfq4TQSMXa3vCq5UeK8.conf
OutFile=./TMP/2021-12-09/NViaux20/Jpsimu4mu4_5.root
ExtraOpts= --injectionConfig ./TMP/2021-12-09/NViaux20/CONFIG/4cSgpskSE5OIexQsQVw6hq9xEpPDHBbyeOn4NDj3.txt  --begin 10 --end 19 
I am so tired (and the cluster does not work anyway), I have to sleep for .06000000000000000000s
Hi, I am back to work
PlotPseudoMass --fileList ./TMP/2021-12-09/NViaux20/CONFIG/GnoeEL8WfIfLr621peQzzQToytN6SAycx3snRa04mZNSyvzLbJFWzqu4vXsFho5p8hKXlKbVN3gxdsCPxfq4TQSMXa3vCq5UeK8.conf  --outDir ./TMP/2021-12-09/NViaux20/6m9GH9zslXy87JkVxlPBAi36knk61kx1T2ZNMbbXUavffa9SUK --outFile tmp_out_6.root --singleThread --noPDFs  --injectionConfig ./TMP/2021-12-09/NViaux20/CONFIG/4cSgpskSE5OIexQsQVw6hq9xEpPDHBbyeOn4NDj3.txt  --begin 10 --end 19 

Applying ATLAS style settings...

GetFilePath() --- Could not find a valid file from path: ./TMP/2021-12-09/NViaux20/CONFIG/GnoeEL8WfIfLr621peQzzQToytN6SAycx3snRa04mZNSyvzLbJFWzqu4vXsFho5p8hKXlKbVN3gxdsCPxfq4TQSMXa3vCq5UeK8.conf
PlotPseudoMass -- ERROR: Please provide at least one file path using the option --fileList. 
##########################################################################################
   Command line arguments to run PlotPseudoMass
##########################################################################################
 --dir [DIR1, DIR2, ...]         :  Use all ROOT files from the following directories    #
 --rootFile [FILE1, FILE2, ...]  :  Pipe directly the paths of the input files to use    #
 --fileList [LIST1, LIST2, ...]  :  Read file paths from txt files where each line re-   #
                                    presents another file path.                          #
 --begin <int>                   :  Start the analysis beginning from the n-th file      #
 --end   <int>                   :  Only consider up to the n-th file for the analysis.  #
 --singleThread                  :  Use only one thread to process the dataset.          #
 --nThreads <int>                :  Specifiy the number of concurrently running threads. #
 --outDir <string>               :  Store the analysis output in directory <dir>.        #
 --outFile <string>              :  Specify the output ROOT file name.                   #
 --injectionConfig <string>      :  Configuration file containing all the constants to   #
                                    be used for sagitta, radial, magnetic bias injection #
 --noPDFs                        :  Do not create any PDF output file.                   #
 --noROOT                        :  Do not create any ROOT output file.                  #
 --trigPreScaleStrategy          :  Strategy for treatment of prescaled triggers         #
                                     0 -- do nothing                                    #
                                     1 -- reweight simulation                           #
                                     2 -- reweight data                                 #
 --trigPreScaleCalibFile         :  Specify trigger prescale calib file to reweight MC   #
 --trigPreScaleSelFile           :  Specify file having list of trigger considered for   #
                                    prescale reweighting                                 #
 --help / -h                     :  Print this diaglogue and exit.                       #
##########################################################################################
##########################################################################################
###############################################################################################
					PlotPseudoMass job has experienced an error
###############################################################################################
